%YAML 1.1
%TAG !u! tag:unity3d.com,2011:
--- !u!1045 &1
EditorBuildSettings:
  m_ObjectHideFlags: 0
  serializedVersion: 2
  m_Scenes:
  - enabled: 1
    path: Assets/Scenes/MainMenu.unity
    guid: 64f2895eec4e68547a671ab912bd7d64
  - enabled: 1
    path: Assets/Scenes/World.unity
    guid: 6df49494ba2d80046bccf7c519d05ced
  - enabled: 1
    path: Assets/Scenes/Win.unity
    guid: a6e41571240e1904c85496f29b517a6d
  - enabled: 1
    path: Assets/Scenes/GameOver.unity
    guid: be568183f539bfe488c736e8aeb6cc31
  m_configObjects: {}
